<?xml version="1.0" encoding="utf-8"?>
<!-- Generator: Adobe Illustrator 18.1.1, SVG Export Plug-In . SVG Version: 6.00 Build 0)  -->
<svg version="1.1" id="Layer_1" xmlns="http://www.w3.org/2000/svg" xmlns:xlink="http://www.w3.org/1999/xlink" x="0px" y="0px"
	 viewBox="0 0 150.9 195" enable-background="new 0 0 150.9 195" xml:space="preserve">
<g>
	<defs>
		<rect id="SVGID_1_" width="150.9" height="195"/>
	</defs>
	<clipPath id="SVGID_2_">
		<use xlink:href="#SVGID_1_"  overflow="visible"/>
	</clipPath>
	<path clip-path="url(#SVGID_2_)" fill="#727171" d="M3.3,185c0,0.9,0.3,1.6,0.8,2.2c0.5,0.6,1.3,0.9,2.3,0.9c0.6,0,1.1-0.1,1.5-0.3
		c0.4-0.2,0.6-0.4,0.9-0.6c0.2-0.2,0.5-0.4,0.7-0.6c0.2-0.2,0.5-0.3,0.8-0.3c0.4,0,0.7,0.1,1,0.4c0.3,0.3,0.4,0.6,0.4,0.9
		c0,0.5-0.2,0.9-0.5,1.3c-0.4,0.4-0.8,0.7-1.3,0.9c-0.5,0.2-1.1,0.4-1.7,0.5c-0.6,0.1-1.2,0.2-1.7,0.2c-1.2,0-2.1-0.2-2.9-0.5
		c-0.8-0.4-1.5-0.8-2-1.4c-0.5-0.6-0.9-1.2-1.1-1.9C0.1,186,0,185.3,0,184.5c0-1,0.1-1.8,0.4-2.6c0.3-0.8,0.7-1.5,1.2-2
		c0.5-0.6,1.2-1,2-1.3c0.8-0.3,1.6-0.5,2.6-0.5c1,0,1.8,0.2,2.5,0.5c0.7,0.3,1.4,0.7,1.9,1.2c0.5,0.5,0.9,1.1,1.2,1.7
		c0.3,0.6,0.4,1.3,0.4,2c0,0.6-0.1,1-0.3,1.1c-0.2,0.2-0.6,0.3-1.1,0.3H3.3z M9.1,183.1c-0.1-0.8-0.4-1.4-0.9-1.9
		c-0.5-0.5-1.1-0.7-1.9-0.7c-0.8,0-1.5,0.2-2,0.7c-0.5,0.5-0.8,1.1-1,1.9H9.1z"/>
	<path clip-path="url(#SVGID_2_)" fill="#727171" d="M16.6,175.3c0-0.5,0.2-1,0.5-1.2c0.3-0.3,0.7-0.4,1.2-0.4
		c0.5,0,0.9,0.1,1.2,0.4c0.3,0.3,0.5,0.7,0.5,1.2v4.6H20c0.2-0.2,0.4-0.4,0.6-0.6c0.2-0.2,0.5-0.4,0.8-0.6c0.3-0.2,0.6-0.3,1-0.4
		c0.4-0.1,0.8-0.1,1.3-0.1c0.5,0,1,0.1,1.5,0.2c0.5,0.1,0.9,0.4,1.3,0.7c0.4,0.3,0.7,0.8,1,1.3c0.2,0.6,0.4,1.3,0.4,2.1v6.4
		c0,0.4-0.1,0.8-0.3,1.2c-0.2,0.3-0.7,0.5-1.3,0.5c-0.6,0-1.1-0.2-1.3-0.5c-0.2-0.3-0.3-0.7-0.3-1.2v-5.8c0-0.7-0.2-1.2-0.5-1.7
		c-0.3-0.4-0.9-0.6-1.6-0.6c-0.3,0-0.6,0.1-0.9,0.2c-0.3,0.1-0.6,0.3-0.8,0.5c-0.2,0.2-0.4,0.5-0.6,0.8c-0.2,0.3-0.2,0.7-0.2,1.1
		v5.5c0,0.4-0.1,0.8-0.3,1.2c-0.2,0.3-0.7,0.5-1.3,0.5c-0.6,0-1.1-0.2-1.3-0.5c-0.2-0.3-0.3-0.7-0.3-1.2V175.3z"/>
	<path clip-path="url(#SVGID_2_)" fill="#727171" d="M32.3,184.3c0-0.9,0.1-1.7,0.4-2.4c0.3-0.8,0.7-1.4,1.2-2
		c0.5-0.6,1.2-1,1.9-1.3c0.8-0.3,1.6-0.5,2.6-0.5c1,0,1.9,0.2,2.6,0.5c0.8,0.3,1.4,0.8,1.9,1.3c0.5,0.6,0.9,1.2,1.2,2
		c0.3,0.8,0.4,1.6,0.4,2.4c0,0.8-0.1,1.6-0.3,2.4c-0.2,0.8-0.6,1.4-1,2c-0.5,0.6-1.1,1-1.9,1.4c-0.8,0.3-1.7,0.5-2.9,0.5
		c-1.1,0-2.1-0.2-2.9-0.5c-0.8-0.3-1.4-0.8-1.9-1.4c-0.5-0.6-0.8-1.2-1-2C32.4,185.9,32.3,185.2,32.3,184.3 M35.6,184.3
		c0,0.5,0.1,1,0.2,1.4c0.1,0.5,0.3,0.9,0.5,1.2c0.2,0.4,0.5,0.6,0.9,0.8c0.4,0.2,0.8,0.3,1.3,0.3c0.5,0,0.9-0.1,1.3-0.3
		c0.4-0.2,0.6-0.5,0.9-0.8c0.2-0.3,0.4-0.8,0.5-1.2c0.1-0.5,0.2-0.9,0.2-1.4c0-0.5-0.1-1-0.2-1.5c-0.1-0.4-0.3-0.8-0.5-1.2
		c-0.2-0.3-0.5-0.6-0.9-0.8c-0.4-0.2-0.8-0.3-1.3-0.3c-0.5,0-0.9,0.1-1.3,0.3c-0.4,0.2-0.6,0.5-0.9,0.8c-0.2,0.3-0.4,0.7-0.5,1.2
		C35.6,183.3,35.6,183.8,35.6,184.3"/>
	<path clip-path="url(#SVGID_2_)" fill="#727171" d="M48.4,181.8c0-0.7,0.2-1.3,0.5-1.7c0.3-0.5,0.7-0.8,1.2-1.1
		c0.5-0.3,1-0.5,1.6-0.6c0.6-0.1,1.2-0.2,1.7-0.2c0.6,0,1.3,0.1,1.9,0.2c0.6,0.1,1.1,0.3,1.6,0.5c0.5,0.2,0.9,0.5,1.1,0.8
		c0.3,0.3,0.4,0.7,0.4,1c0,0.4-0.1,0.7-0.4,1c-0.2,0.3-0.6,0.4-1,0.4c-0.3,0-0.6-0.1-0.8-0.2c-0.2-0.2-0.4-0.3-0.6-0.5
		c-0.2-0.2-0.5-0.4-0.8-0.5c-0.3-0.2-0.7-0.2-1.2-0.2c-0.6,0-1,0.1-1.4,0.2c-0.4,0.2-0.5,0.4-0.5,0.8c0,0.4,0.2,0.7,0.5,0.8
		c0.3,0.1,0.8,0.3,1.3,0.4l1.4,0.3c0.5,0.1,0.9,0.2,1.4,0.4c0.5,0.2,0.9,0.4,1.3,0.7c0.4,0.3,0.7,0.6,1,1c0.3,0.4,0.4,0.9,0.4,1.5
		c0,0.7-0.1,1.3-0.4,1.8c-0.3,0.5-0.7,0.9-1.2,1.2c-0.5,0.3-1,0.6-1.6,0.7c-0.6,0.2-1.2,0.2-1.8,0.2c-0.8,0-1.5-0.1-2.1-0.2
		c-0.7-0.2-1.2-0.4-1.7-0.6c-0.5-0.3-0.9-0.6-1.2-0.9c-0.3-0.4-0.4-0.7-0.4-1.2c0-0.4,0.1-0.7,0.3-1c0.2-0.3,0.6-0.4,1-0.4
		c0.4,0,0.7,0.1,0.9,0.3c0.2,0.2,0.5,0.4,0.7,0.7c0.3,0.3,0.6,0.5,0.9,0.7c0.4,0.2,0.8,0.3,1.5,0.3c0.6,0,1.1-0.1,1.4-0.3
		c0.3-0.2,0.5-0.5,0.5-0.9c0-0.4-0.2-0.7-0.5-0.8c-0.3-0.1-0.8-0.3-1.4-0.4l-1.9-0.5c-0.5-0.1-0.9-0.3-1.4-0.4
		c-0.4-0.2-0.8-0.4-1.1-0.7c-0.3-0.3-0.6-0.6-0.7-1C48.5,182.8,48.4,182.4,48.4,181.8"/>
	<path clip-path="url(#SVGID_2_)" fill="#727171" d="M64.2,180.6h-0.6c-0.5,0-0.8-0.1-1-0.3c-0.2-0.2-0.3-0.5-0.3-0.8
		c0-0.4,0.1-0.6,0.3-0.8c0.2-0.2,0.5-0.3,1-0.3h0.6v-2c0-0.5,0.2-1,0.5-1.2c0.3-0.3,0.7-0.4,1.2-0.4c0.5,0,0.9,0.1,1.2,0.4
		c0.3,0.3,0.5,0.7,0.5,1.2v2h1c0.5,0,0.8,0.1,1.1,0.3c0.3,0.2,0.4,0.4,0.4,0.8c0,0.4-0.1,0.7-0.4,0.8c-0.3,0.2-0.6,0.2-1.1,0.2h-1
		v6.6c0,0.5,0.3,0.8,0.9,0.8h0.5c0.4,0,0.6,0.1,0.8,0.3c0.2,0.2,0.3,0.5,0.3,0.8c0,1-0.8,1.5-2.4,1.5c-1.2,0-2.1-0.3-2.6-0.7
		c-0.5-0.5-0.8-1.2-0.8-2.2V180.6z"/>
	<path clip-path="url(#SVGID_2_)" fill="#727171" d="M75,180.6h-0.7c-0.5,0-0.8-0.1-1-0.3c-0.2-0.2-0.3-0.5-0.3-0.8
		c0-0.4,0.1-0.6,0.3-0.8c0.2-0.2,0.5-0.3,1-0.3H75v-1.7c0-0.5,0.1-1,0.3-1.4c0.2-0.4,0.5-0.7,0.8-1c0.3-0.3,0.7-0.5,1.2-0.6
		c0.4-0.1,0.9-0.2,1.4-0.2c0.6,0,1.1,0.1,1.5,0.4c0.4,0.2,0.6,0.7,0.6,1.2c0,0.3-0.1,0.6-0.3,0.8c-0.2,0.2-0.5,0.3-0.8,0.3
		c-0.1,0-0.2,0-0.4,0c-0.1,0-0.2,0-0.4,0c-0.2,0-0.4,0.1-0.5,0.2c-0.1,0.1-0.2,0.3-0.2,0.6v1.4h1c0.5,0,0.9,0.1,1.1,0.3
		c0.3,0.2,0.4,0.4,0.4,0.8c0,0.4-0.1,0.7-0.4,0.8c-0.3,0.2-0.6,0.2-1.1,0.2h-1v8.3c0,0.5-0.2,1-0.5,1.2c-0.3,0.3-0.7,0.4-1.2,0.4
		c-0.5,0-0.9-0.1-1.2-0.4c-0.3-0.3-0.5-0.7-0.5-1.2V180.6z"/>
	<path clip-path="url(#SVGID_2_)" fill="#727171" d="M95.6,187.1c0,0.4,0,0.6,0.1,0.9c0,0.2,0.1,0.4,0.1,0.6c0,0.2,0.1,0.3,0.1,0.4
		c0,0.1,0.1,0.2,0.1,0.4c0,0.4-0.2,0.7-0.5,0.9c-0.3,0.2-0.7,0.4-1,0.4c-0.7,0-1.2-0.2-1.5-0.6c-0.3-0.4-0.4-0.8-0.5-1.4
		c-0.6,0.7-1.3,1.2-2.1,1.5c-0.7,0.3-1.6,0.4-2.4,0.4c-0.5,0-0.9-0.1-1.4-0.2c-0.4-0.2-0.8-0.4-1.2-0.7c-0.4-0.3-0.6-0.6-0.9-1.1
		c-0.2-0.4-0.3-0.9-0.3-1.4c0-0.7,0.1-1.3,0.4-1.7c0.2-0.5,0.6-0.8,1-1.1c0.4-0.3,0.9-0.5,1.5-0.6c0.6-0.1,1.2-0.3,1.8-0.3l2-0.2
		c0.2,0,0.4-0.1,0.6-0.1c0.2,0,0.3-0.1,0.5-0.2c0.1-0.1,0.2-0.2,0.3-0.4c0.1-0.1,0.1-0.3,0.1-0.6c0-0.5-0.2-0.8-0.6-1
		c-0.4-0.2-0.9-0.3-1.5-0.3c-0.6,0-1.1,0.1-1.5,0.3c-0.3,0.2-0.6,0.4-0.9,0.6c-0.2,0.2-0.5,0.4-0.7,0.6c-0.2,0.2-0.5,0.3-0.8,0.3
		c-0.4,0-0.8-0.1-1-0.4c-0.3-0.2-0.4-0.5-0.4-0.9c0-0.3,0.1-0.7,0.3-1c0.2-0.3,0.6-0.7,1-1c0.4-0.3,1-0.5,1.7-0.7
		c0.7-0.2,1.4-0.3,2.3-0.3c0.8,0,1.5,0.1,2.2,0.2c0.7,0.1,1.2,0.3,1.7,0.6c0.5,0.3,0.8,0.6,1.1,1.1c0.3,0.4,0.4,0.9,0.4,1.5V187.1z
		 M92.3,184.7c-0.2,0.2-0.4,0.3-0.7,0.4c-0.3,0.1-0.5,0.1-0.7,0.2l-1.2,0.2c-0.7,0.1-1.2,0.3-1.6,0.5c-0.4,0.2-0.5,0.6-0.5,1.1
		c0,0.4,0.2,0.7,0.5,1c0.3,0.3,0.8,0.4,1.3,0.4c0.5,0,0.9-0.1,1.2-0.2c0.4-0.1,0.7-0.3,0.9-0.5c0.3-0.2,0.4-0.5,0.6-0.8
		c0.1-0.3,0.2-0.6,0.2-0.9V184.7z"/>
	<path clip-path="url(#SVGID_2_)" fill="#727171" d="M100.8,179.8c0-0.5,0.1-0.9,0.4-1.2c0.3-0.3,0.7-0.5,1.1-0.5
		c0.5,0,0.9,0.1,1.1,0.5c0.3,0.3,0.4,0.7,0.4,1.2v0.4h0c0.4-0.7,1-1.2,1.7-1.5c0.7-0.4,1.5-0.5,2.3-0.5c0.3,0,0.6,0,0.9,0.1
		c0.3,0.1,0.6,0.2,0.9,0.4c0.3,0.2,0.6,0.4,0.8,0.6c0.2,0.3,0.4,0.6,0.6,1c0.5-0.6,1-1.2,1.6-1.5c0.6-0.4,1.4-0.6,2.3-0.6
		c0.6,0,1.1,0.1,1.6,0.2c0.5,0.1,0.9,0.4,1.3,0.7c0.4,0.3,0.7,0.7,0.9,1.3c0.2,0.5,0.3,1.1,0.3,1.9v6.8c0,0.4-0.1,0.8-0.3,1.2
		c-0.2,0.3-0.7,0.5-1.3,0.5c-0.6,0-1.1-0.2-1.3-0.5c-0.2-0.3-0.3-0.7-0.3-1.2V183c0-0.6-0.1-1.1-0.4-1.5c-0.3-0.4-0.7-0.6-1.4-0.6
		c-0.3,0-0.6,0.1-0.9,0.2c-0.3,0.1-0.5,0.3-0.8,0.5c-0.2,0.2-0.4,0.5-0.5,0.8c-0.1,0.3-0.2,0.7-0.2,1v5.5c0,0.4-0.1,0.8-0.3,1.2
		c-0.2,0.3-0.7,0.5-1.3,0.5c-0.7,0-1.1-0.2-1.3-0.5c-0.2-0.3-0.3-0.7-0.3-1.2V183c0-0.6-0.1-1.1-0.4-1.5c-0.3-0.4-0.7-0.6-1.4-0.6
		c-0.3,0-0.6,0.1-0.9,0.2c-0.3,0.1-0.5,0.3-0.8,0.5c-0.2,0.2-0.4,0.5-0.5,0.8c-0.1,0.3-0.2,0.7-0.2,1v5.5c0,0.4-0.1,0.8-0.3,1.2
		c-0.2,0.3-0.7,0.5-1.3,0.5s-1.1-0.2-1.3-0.5c-0.2-0.3-0.3-0.7-0.3-1.2V179.8z"/>
	<path clip-path="url(#SVGID_2_)" fill="#727171" d="M124.1,175.3c0-0.5,0.2-0.9,0.5-1.2c0.3-0.3,0.7-0.5,1.2-0.5
		c0.5,0,0.9,0.2,1.2,0.5c0.3,0.3,0.5,0.7,0.5,1.2c0,0.5-0.2,0.9-0.5,1.2c-0.3,0.3-0.7,0.5-1.2,0.5c-0.5,0-0.9-0.2-1.2-0.5
		C124.3,176.2,124.1,175.8,124.1,175.3 M124.2,179.8c0-0.4,0.1-0.8,0.3-1.2c0.2-0.3,0.7-0.5,1.3-0.5c0.7,0,1.1,0.2,1.3,0.5
		c0.2,0.3,0.3,0.7,0.3,1.2v9.1c0,0.4-0.1,0.8-0.3,1.2c-0.2,0.3-0.7,0.5-1.3,0.5c-0.7,0-1.1-0.2-1.3-0.5c-0.2-0.3-0.3-0.7-0.3-1.2
		V179.8z"/>
	<path clip-path="url(#SVGID_2_)" fill="#727171" d="M132.8,175.3c0-0.5,0.2-1,0.5-1.2c0.3-0.3,0.7-0.4,1.2-0.4
		c0.5,0,0.9,0.1,1.2,0.4c0.3,0.3,0.5,0.7,0.5,1.2v13.6c0,0.5-0.2,1-0.5,1.2c-0.3,0.3-0.7,0.4-1.2,0.4c-0.5,0-0.9-0.1-1.2-0.4
		c-0.3-0.3-0.5-0.7-0.5-1.2V175.3z"/>
	<path clip-path="url(#SVGID_2_)" fill="#727171" d="M145.6,187.1L145.6,187.1l2.1-7.5c0.1-0.4,0.3-0.8,0.5-1.1
		c0.2-0.3,0.6-0.4,1-0.4c0.3,0,0.6,0.1,0.8,0.2c0.2,0.1,0.4,0.3,0.5,0.4c0.1,0.2,0.2,0.3,0.3,0.5c0.1,0.2,0.1,0.3,0.1,0.4
		c0,0.2-0.1,0.6-0.2,1l-3.8,10.9c-0.2,0.6-0.4,1.1-0.6,1.5c-0.2,0.4-0.5,0.8-0.8,1.1c-0.3,0.3-0.6,0.5-1,0.7
		c-0.4,0.1-0.8,0.2-1.4,0.2c-0.7,0-1.3-0.2-1.6-0.5c-0.3-0.3-0.5-0.7-0.5-1.1c0-0.4,0.1-0.8,0.4-1c0.3-0.2,0.7-0.3,1.1-0.3h0.3
		c0.1,0,0.2,0,0.3,0c0.1,0,0.2-0.1,0.3-0.1c0.1-0.1,0.2-0.2,0.3-0.3c0.1-0.1,0.2-0.3,0.2-0.6l-3.4-9.8c-0.1-0.4-0.2-0.7-0.3-0.9
		c-0.1-0.2-0.1-0.4-0.1-0.6c0-0.5,0.2-0.8,0.5-1.1c0.3-0.3,0.7-0.5,1.1-0.5c0.4,0,0.8,0.1,1.1,0.3c0.3,0.2,0.5,0.5,0.6,0.9
		L145.6,187.1z"/>
	<path clip-path="url(#SVGID_2_)" fill="#59C2E1" d="M100.2,124.5c-8.1-8.1-21.4-8.1-29.5,0c-2.8,2.8-4.6,6.2-5.5,9.8H44.1l0-17.5
		c0-2.8-2.2-5-5-5c-2.8,0-5,2.2-5,5l0,17.5H13.4l0-16c0-2.8-2.2-5-5-5c-2.8,0-5,2.2-5,5l0,21c0,1.4,0.6,2.6,1.5,3.5
		c0.9,0.9,2.2,1.5,3.5,1.5l56.9,0c0.9,3.6,2.7,7,5.5,9.8c8.1,8.1,21.4,8.1,29.5,0C108.4,145.9,108.4,132.6,100.2,124.5 M74.6,139.2
		c0-2.8,1.1-5.5,3.2-7.6c4.2-4.2,11.1-4.2,15.4,0c4.2,4.2,4.2,11.1,0,15.4c-4.2,4.2-11.1,4.2-15.4,0c-2.1-2.1-3.2-4.9-3.2-7.6"/>
	<path clip-path="url(#SVGID_2_)" fill="#59C2E1" d="M44.1,134.3l0-17.5c0-2.8-2.2-5-5-5c-2.8,0-5,2.2-5,5v17.5"/>
	<path clip-path="url(#SVGID_2_)" fill="#59C2E1" d="M130.1,57.9c-7.1-7.1-15.8-12.3-25.3-15.1c-2.8-9.5-8-18.2-15.1-25.3
		C66.3-5.8,28.2-5.8,4.8,17.5c-0.9,0.9-1.5,2.2-1.5,3.6l0,55.2l0,6.1v11c0,2.8,2.2,5,5,5c2.8,0,5-2.2,5-5l0-11l25.8-23.3L65,82.6
		v27.2c14-9.7,33.4-8.4,45.9,4.1c7.9,7.9,11.4,18.7,10.3,29.1l8.9-0.1C153.5,119.4,153.5,81.3,130.1,57.9"/>
</g>
</svg>
