<?xml version="1.0" encoding="utf-8"?>
<!-- Generator: Adobe Illustrator 18.1.1, SVG Export Plug-In . SVG Version: 6.00 Build 0)  -->
<svg version="1.1" id="Layer_1" xmlns="http://www.w3.org/2000/svg" xmlns:xlink="http://www.w3.org/1999/xlink" x="0px" y="0px"
	 viewBox="0 0 101.5 101.5" enable-background="new 0 0 101.5 101.5" xml:space="preserve">
<g>
	<path d="M50.8,0C22.7,0,0,22.7,0,50.8s22.7,50.8,50.8,50.8s50.8-22.7,50.8-50.8S78.8,0,50.8,0z M37.9,78.3v-55
		l37.7,27.3L37.9,78.3z"/>
</g>
</svg>
